EDA Laptop
…
#Top days of tweets for RightTrolls
 tweets %>% distinct(tweet_id, .keep_all = T) %>% 
   group_by(date = date(publish_date)) %>% 
   filter(date >= as.Date("2014-06-01"), account_category=="RightTroll") %>% count(date, sort = T)

## # A tibble: 959 x 2
## # Groups:   date [959]
##    date           n
##    <date>     <int>
##  1 2017-08-16  1715
##  2 2017-08-17  1687
##  3 2017-08-15  1634
##  4 2017-08-14  1584
##  5 2017-08-18  1559
##  6 2017-08-13  1545
##  7 2017-08-12  1533
##  8 2017-08-09  1286
##  9 2017-08-10  1166
## 10 2017-08-08  1147
## # ... with 949 more rows

08/08/2017 - 08/18/2017 saw a massive spike in tweets for RighTrolls. Occured around the Chartlottesville Unite the Right Rally.

#Top days of tweets for LeftTrolls
 tweets %>% distinct(tweet_id, .keep_all = T) %>% 
   group_by(date = date(publish_date)) %>% 
   filter(date >= as.Date("2014-06-01"), account_category=="LeftTroll") %>% count(date, sort = T)

## # A tibble: 1,018 x 2
## # Groups:   date [1,018]
##    date           n
##    <date>     <int>
##  1 2016-10-06  1276
##  2 2016-10-07   807
##  3 2017-07-18   509
##  4 2016-02-26   426
##  5 2016-07-07   381
##  6 2016-05-15   380
##  7 2016-03-31   344
##  8 2016-05-16   344
##  9 2016-12-10   319
## 10 2016-12-04   305
## # ... with 1,008 more rows
…
