Sentiment Analysis
…
From the sentiment lexicon, we have an average of 34.63 words per day. To not let days with very low amount of words sway the sentiment on way or another, we will only look at days that have at least 10 words (above the first quartile).

tweets_sentiment %>% group_by(date = date(publish_date)) %>%
    summarise(mean_score = mean(afinn_score), n = n()) %>% 
    filter(n >10) %>%
    arrange(mean_score)

## # A tibble: 1,092 x 3
##    date       mean_score     n
##    <date>          <dbl> <int>
##  1 2016-07-21      -2.37   914
##  2 2017-11-03      -2.23    13
##  3 2017-11-29      -2.22  1517
##  4 2017-11-01      -1.75    16
##  5 2017-10-19      -1.66   788
##  6 2015-01-03      -1.64   109
##  7 2018-02-11      -1.6     15
##  8 2016-08-12      -1.59   752
##  9 2014-12-14      -1.56    18
## 10 2015-10-17      -1.52    44
## # ... with 1,082 more rows
…
